[
  {
    "id": 3,
    "count": 4473,
    "description": "",
    "link": "https://www.capitalfm.co.ke/news/section/africa/",
    "name": "Africa",
    "slug": "africa",
    "taxonomy": "category",
    "parent": 0,
    "_links": {
      "self": [
        {
          "href": "https://www.capitalfm.co.ke/news/wp-json/wp/v2/categories/3"
        }
      ],
      "collection": [
        {
          "href": "https://www.capitalfm.co.ke/news/wp-json/wp/v2/categories"
        }
      ],
      "about": [
        {
          "href": "https://www.capitalfm.co.ke/news/wp-json/wp/v2/taxonomies/category"
        }
      ],
      "wp:post_type": [
        {
          "href": "https://www.capitalfm.co.ke/news/wp-json/wp/v2/posts?categories=3"
        },
        {
          "href": "https://www.capitalfm.co.ke/news/wp-json/wp/v2/audio-api?categories=3"
        }
      ],
      "curies": [
        {
          "name": "wp",
          "href": "https://api.w.org/{rel}",
          "templated": true
        }
      ]
    }
  },
  {
    "id": 7,
    "count": 1,
    "description": "",
    "link": "https://www.capitalfm.co.ke/news/section/download/bills/",
    "name": "Bills",
    "slug": "bills",
    "taxonomy": "category",
    "parent": 6,
    "_links": {
      "self": [
        {
          "href": "https://www.capitalfm.co.ke/news/wp-json/wp/v2/categories/7"
        }
      ],
      "collection": [
        {
          "href": "https://www.capitalfm.co.ke/news/wp-json/wp/v2/categories"
        }
      ],
      "about": [
        {
          "href": "https://www.capitalfm.co.ke/news/wp-json/wp/v2/taxonomies/category"
        }
      ],
      "up": [
        {
          "embeddable": true,
          "href": "https://www.capitalfm.co.ke/news/wp-json/wp/v2/categories/6"
        }
      ],
      "wp:post_type": [
        {
          "href": "https://www.capitalfm.co.ke/news/wp-json/wp/v2/posts?categories=7"
        },
        {
          "href": "https://www.capitalfm.co.ke/news/wp-json/wp/v2/audio-api?categories=7"
        }
      ],
      "curies": [
        {
          "name": "wp",
          "href": "https://api.w.org/{rel}",
          "templated": true
        }
      ]
    }
  },
  {
    "id": 8,
    "count": 0,
    "description": "",
    "link": "https://www.capitalfm.co.ke/news/section/download/biographies/",
    "name": "Biographies",
    "slug": "biographies",
    "taxonomy": "category",
    "parent": 6,
    "_links": {
      "self": [
        {
          "href": "https://www.capitalfm.co.ke/news/wp-json/wp/v2/categories/8"
        }
      ],
      "collection": [
        {
          "href": "https://www.capitalfm.co.ke/news/wp-json/wp/v2/categories"
        }
      ],
      "about": [
        {
          "href": "https://www.capitalfm.co.ke/news/wp-json/wp/v2/taxonomies/category"
        }
      ],
      "up": [
        {
          "embeddable": true,
          "href": "https://www.capitalfm.co.ke/news/wp-json/wp/v2/categories/6"
        }
      ],
      "wp:post_type": [
        {
          "href": "https://www.capitalfm.co.ke/news/wp-json/wp/v2/posts?categories=8"
        },
        {
          "href": "https://www.capitalfm.co.ke/news/wp-json/wp/v2/audio-api?categories=8"
        }
      ],
      "curies": [
        {
          "name": "wp",
          "href": "https://api.w.org/{rel}",
          "templated": true
        }
      ]
    }
  },
  {
    "id": 140,
    "count": 3,
    "description": "",
    "link": "https://www.capitalfm.co.ke/news/section/capital-downloads/",
    "name": "Capital Downloads",
    "slug": "capital-downloads",
    "taxonomy": "category",
    "parent": 0,
    "_links": {
      "self": [
        {
          "href": "https://www.capitalfm.co.ke/news/wp-json/wp/v2/categories/140"
        }
      ],
      "collection": [
        {
          "href": "https://www.capitalfm.co.ke/news/wp-json/wp/v2/categories"
        }
      ],
      "about": [
        {
          "href": "https://www.capitalfm.co.ke/news/wp-json/wp/v2/taxonomies/category"
        }
      ],
      "wp:post_type": [
        {
          "href": "https://www.capitalfm.co.ke/news/wp-json/wp/v2/posts?categories=140"
        },
        {
          "href": "https://www.capitalfm.co.ke/news/wp-json/wp/v2/audio-api?categories=140"
        }
      ],
      "curies": [
        {
          "name": "wp",
          "href": "https://api.w.org/{rel}",
          "templated": true
        }
      ]
    }
  },
  {
    "id": 422,
    "count": 360,
    "description": "",
    "link": "https://www.capitalfm.co.ke/news/section/county-news/",
    "name": "County News",
    "slug": "county-news",
    "taxonomy": "category",
    "parent": 0,
    "_links": {
      "self": [
        {
          "href": "https://www.capitalfm.co.ke/news/wp-json/wp/v2/categories/422"
        }
      ],
      "collection": [
        {
          "href": "https://www.capitalfm.co.ke/news/wp-json/wp/v2/categories"
        }
      ],
      "about": [
        {
          "href": "https://www.capitalfm.co.ke/news/wp-json/wp/v2/taxonomies/category"
        }
      ],
      "wp:post_type": [
        {
          "href": "https://www.capitalfm.co.ke/news/wp-json/wp/v2/posts?categories=422"
        },
        {
          "href": "https://www.capitalfm.co.ke/news/wp-json/wp/v2/audio-api?categories=422"
        }
      ],
      "curies": [
        {
          "name": "wp",
          "href": "https://api.w.org/{rel}",
          "templated": true
        }
      ]
    }
  },
  {
    "id": 9,
    "count": 12,
    "description": "",
    "link": "https://www.capitalfm.co.ke/news/section/download/court-cases/",
    "name": "Court cases",
    "slug": "court-cases",
    "taxonomy": "category",
    "parent": 6,
    "_links": {
      "self": [
        {
          "href": "https://www.capitalfm.co.ke/news/wp-json/wp/v2/categories/9"
        }
      ],
      "collection": [
        {
          "href": "https://www.capitalfm.co.ke/news/wp-json/wp/v2/categories"
        }
      ],
      "about": [
        {
          "href": "https://www.capitalfm.co.ke/news/wp-json/wp/v2/taxonomies/category"
        }
      ],
      "up": [
        {
          "embeddable": true,
          "href": "https://www.capitalfm.co.ke/news/wp-json/wp/v2/categories/6"
        }
      ],
      "wp:post_type": [
        {
          "href": "https://www.capitalfm.co.ke/news/wp-json/wp/v2/posts?categories=9"
        },
        {
          "href": "https://www.capitalfm.co.ke/news/wp-json/wp/v2/audio-api?categories=9"
        }
      ],
      "curies": [
        {
          "name": "wp",
          "href": "https://api.w.org/{rel}",
          "templated": true
        }
      ]
    }
  },
  {
    "id": 6,
    "count": 37,
    "description": "",
    "link": "https://www.capitalfm.co.ke/news/section/download/",
    "name": "Download",
    "slug": "download",
    "taxonomy": "category",
    "parent": 0,
    "_links": {
      "self": [
        {
          "href": "https://www.capitalfm.co.ke/news/wp-json/wp/v2/categories/6"
        }
      ],
      "collection": [
        {
          "href": "https://www.capitalfm.co.ke/news/wp-json/wp/v2/categories"
        }
      ],
      "about": [
        {
          "href": "https://www.capitalfm.co.ke/news/wp-json/wp/v2/taxonomies/category"
        }
      ],
      "wp:post_type": [
        {
          "href": "https://www.capitalfm.co.ke/news/wp-json/wp/v2/posts?categories=6"
        },
        {
          "href": "https://www.capitalfm.co.ke/news/wp-json/wp/v2/audio-api?categories=6"
        }
      ],
      "curies": [
        {
          "name": "wp",
          "href": "https://api.w.org/{rel}",
          "templated": true
        }
      ]
    }
  },
  {
    "id": 10,
    "count": 14,
    "description": "",
    "link": "https://www.capitalfm.co.ke/news/section/download/education/",
    "name": "Education",
    "slug": "education",
    "taxonomy": "category",
    "parent": 6,
    "_links": {
      "self": [
        {
          "href": "https://www.capitalfm.co.ke/news/wp-json/wp/v2/categories/10"
        }
      ],
      "collection": [
        {
          "href": "https://www.capitalfm.co.ke/news/wp-json/wp/v2/categories"
        }
      ],
      "about": [
        {
          "href": "https://www.capitalfm.co.ke/news/wp-json/wp/v2/taxonomies/category"
        }
      ],
      "up": [
        {
          "embeddable": true,
          "href": "https://www.capitalfm.co.ke/news/wp-json/wp/v2/categories/6"
        }
      ],
      "wp:post_type": [
        {
          "href": "https://www.capitalfm.co.ke/news/wp-json/wp/v2/posts?categories=10"
        },
        {
          "href": "https://www.capitalfm.co.ke/news/wp-json/wp/v2/audio-api?categories=10"
        }
      ],
      "curies": [
        {
          "name": "wp",
          "href": "https://api.w.org/{rel}",
          "templated": true
        }
      ]
    }
  },
  {
    "id": 11,
    "count": 4,
    "description": "",
    "link": "https://www.capitalfm.co.ke/news/section/download/electoral-and-boundaries/",
    "name": "Electoral and Boundaries",
    "slug": "electoral-and-boundaries",
    "taxonomy": "category",
    "parent": 6,
    "_links": {
      "self": [
        {
          "href": "https://www.capitalfm.co.ke/news/wp-json/wp/v2/categories/11"
        }
      ],
      "collection": [
        {
          "href": "https://www.capitalfm.co.ke/news/wp-json/wp/v2/categories"
        }
      ],
      "about": [
        {
          "href": "https://www.capitalfm.co.ke/news/wp-json/wp/v2/taxonomies/category"
        }
      ],
      "up": [
        {
          "embeddable": true,
          "href": "https://www.capitalfm.co.ke/news/wp-json/wp/v2/categories/6"
        }
      ],
      "wp:post_type": [
        {
          "href": "https://www.capitalfm.co.ke/news/wp-json/wp/v2/posts?categories=11"
        },
        {
          "href": "https://www.capitalfm.co.ke/news/wp-json/wp/v2/audio-api?categories=11"
        }
      ],
      "curies": [
        {
          "name": "wp",
          "href": "https://api.w.org/{rel}",
          "templated": true
        }
      ]
    }
  },
  {
    "id": 453,
    "count": 44,
    "description": "",
    "link": "https://www.capitalfm.co.ke/news/section/farewell-mandela/",
    "name": "Farewell Mandela",
    "slug": "farewell-mandela",
    "taxonomy": "category",
    "parent": 0,
    "_links": {
      "self": [
        {
          "href": "https://www.capitalfm.co.ke/news/wp-json/wp/v2/categories/453"
        }
      ],
      "collection": [
        {
          "href": "https://www.capitalfm.co.ke/news/wp-json/wp/v2/categories"
        }
      ],
      "about": [
        {
          "href": "https://www.capitalfm.co.ke/news/wp-json/wp/v2/taxonomies/category"
        }
      ],
      "wp:post_type": [
        {
          "href": "https://www.capitalfm.co.ke/news/wp-json/wp/v2/posts?categories=453"
        },
        {
          "href": "https://www.capitalfm.co.ke/news/wp-json/wp/v2/audio-api?categories=453"
        }
      ],
      "curies": [
        {
          "name": "wp",
          "href": "https://api.w.org/{rel}",
          "templated": true
        }
      ]
    }
  }
]